<svg width="32" height="32" viewBox="0 0 32 32" fill="none" xmlns="http://www.w3.org/2000/svg">
<path fill-rule="evenodd" clip-rule="evenodd" d="M29.2187 22.8527C29.9242 21.4947 30.4265 20.0142 30.6854 18.4516C30.1818 19.5303 29.2068 20.9801 28.0003 22.2277C27.0889 23.1702 23.7977 25.2657 17.7217 26.7847C16.3571 27.146 14.7221 27.3958 13.1351 27.6384C11.2261 27.9301 9.38638 28.2113 8.1702 28.6629C8.52735 28.8842 8.89456 29.0908 9.27098 29.2819C15.9016 29.2956 25.7274 27.7675 29.2187 22.8527ZM25.2053 27.6995C23.5005 28.6758 20.3795 29.8359 15.5445 30.1772C14.4882 30.2518 12.442 30.143 10.9351 30.0022C12.5162 30.5742 14.2217 30.8861 16.0002 30.8861C19.4753 30.8861 22.6722 29.6953 25.2053 27.6995ZM27.7978 18.9366C29.8465 17.0214 30.7199 15.5764 30.6593 13.3954C30.4611 12.2717 30.1367 11.1915 29.7015 10.17C30.317 13.3068 28.2611 16.2806 25.4686 18.0758C22.0255 20.2892 18.2062 21.5348 14.8074 22.615C12.0508 23.4911 9.50655 24.2997 7.4431 25.5695C6.0058 20.012 3.20849 8.1077 8.18786 3.32586C6.98354 4.06979 5.89321 4.98058 4.94912 6.02597C3.5976 8.3696 3.01563 12.0059 3.54434 15.5441C4.27337 20.423 6.02221 25.9733 6.94558 27.8166C6.96996 27.8353 6.9944 27.854 7.0189 27.8725C7.76543 27.2606 9.02008 26.7774 11.3925 25.924C13.5199 25.1587 15.3903 24.6568 17.1067 24.1963C21.0686 23.1332 24.21 22.2903 27.7978 18.9366ZM1.11394 15.9998C1.11394 14.8003 1.25582 13.6338 1.52373 12.5164C1.27087 15.0824 1.67549 17.0958 2.48104 19.9999C3.13341 22.3517 4.63666 24.9998 5.65756 26.7064C2.85602 23.9995 1.11394 20.2031 1.11394 15.9998ZM28.3041 7.64531L28.2879 7.59424C26.1154 4.42448 22.7483 2.13784 18.8355 1.3833C18.1723 1.43087 17.2247 1.58063 16.2533 3.03767C14.8356 5.16427 14.4812 7.79721 14.4812 9.97445V15.7467L11.1393 17.1138C11.0381 15.6623 10.8659 11.9492 11.3925 7.49341C11.8858 3.31952 14.7576 1.48563 16.3536 1.11771C16.2361 1.11498 16.1183 1.1136 16.0002 1.1136C14.7615 1.1136 13.5582 1.26488 12.4078 1.54996C11.527 2.28078 10.7974 3.12964 10.2279 3.89844C9.23658 5.23678 8.5064 6.83518 8.25324 12.5568C8.04731 17.2107 8.86084 20.4724 9.11401 21.367C11.4676 20.3251 14.4417 19.0934 17.2392 17.9349L17.2393 17.9349L17.2398 17.9346C19.5174 16.9914 21.6781 16.0966 23.2914 15.3922C24.7448 14.7576 29.6712 11.9492 28.3041 7.64531ZM16.0002 32C24.8368 32 32.0003 24.8365 32.0003 15.9998C32.0003 7.16318 24.8368 -0.000335693 16.0002 -0.000335693C7.16352 -0.000335693 0 7.16318 0 15.9998C0 24.8365 7.16352 32 16.0002 32Z" fill="white"/>
</svg>
