<svg width="13" height="12" viewBox="0 0 13 12" fill="none" xmlns="http://www.w3.org/2000/svg">
<path d="M10.3223 4.5H9.94727V3C9.94727 1.34546 8.60181 0 6.94727 0C5.29272 0 3.94727 1.34546 3.94727 3V4.5H3.57227C2.95227 4.5 2.44727 5.00446 2.44727 5.625V10.875C2.44727 11.4955 2.95227 12 3.57227 12H10.3223C10.9423 12 11.4473 11.4955 11.4473 10.875V5.625C11.4473 5.00446 10.9423 4.5 10.3223 4.5ZM4.9473 3C4.9473 1.89697 5.84424 1.00003 6.94727 1.00003C8.05029 1.00003 8.94724 1.89697 8.94724 3V4.5H4.9473V3Z" fill="#354A94"/>
</svg>
