<svg width="12" height="11" viewBox="0 0 12 11" fill="none" xmlns="http://www.w3.org/2000/svg">
<g clip-path="url(#clip0)">
<path d="M10.8844 6.79525L9.50208 5.8905L10.0342 4.91471C10.1575 4.68554 10.2299 4.41375 10.2304 4.12454V2.57766V2.57216C10.2304 2.13749 10.1036 1.71225 9.86549 1.3486C9.62736 0.98495 9.28828 0.698707 8.88983 0.524981C8.49138 0.351255 8.05089 0.297599 7.62238 0.370595C7.19388 0.44359 6.796 0.640063 6.47754 0.935914L6.47891 0.934539L6.94596 1.43871C7.16681 1.23454 7.44239 1.09919 7.73897 1.04922C8.03555 0.999245 8.34027 1.03681 8.61583 1.15733C8.89139 1.27785 9.12584 1.47608 9.29049 1.72777C9.45514 1.97946 9.54285 2.27369 9.54287 2.57446V4.12454C9.54287 4.29275 9.50116 4.45133 9.42829 4.59112L9.43104 4.58562L8.59504 6.11829L10.5086 7.37046C10.757 7.53454 10.9183 7.81275 10.9183 8.12854V9.28125H9.37146V9.96875H11.6058V8.13175V8.12762C11.6058 7.57258 11.3217 7.084 10.8908 6.79937L10.8849 6.79571L10.8844 6.79525Z" fill="black"/>
<path d="M7.7911 7.48274L6.40877 6.57799L6.94089 5.6022C7.06418 5.37303 7.1366 5.10124 7.13706 4.81203V3.26516C7.13669 2.67226 6.90113 2.10373 6.48206 1.68432C6.063 1.26491 5.49466 1.02888 4.90177 1.02803C4.30915 1.02924 3.74121 1.26545 3.32252 1.68483C2.90382 2.10422 2.66855 2.67254 2.66831 3.26516V4.81982C2.66831 5.10582 2.73981 5.37532 2.86631 5.61091L2.86172 5.60174L3.39706 6.58257L2.02252 7.48182C1.80121 7.62641 1.61941 7.82385 1.49353 8.05631C1.36766 8.28877 1.30168 8.54893 1.30156 8.81328V8.81603L1.29102 10.6549H8.5116V8.81786V8.81374C8.5116 8.2587 8.22743 7.77011 7.7966 7.48549L7.79064 7.48182L7.7911 7.48274ZM7.8241 9.96874H1.98218L1.98906 8.81924V8.81603C1.98906 8.50024 2.15039 8.22249 2.3956 8.06024L2.39881 8.05795L4.3041 6.81128L3.46489 5.27311C3.39232 5.13176 3.35475 4.97505 3.35535 4.81616V3.26516C3.35535 3.06202 3.39536 2.86087 3.4731 2.67319C3.55084 2.48552 3.66478 2.31499 3.80842 2.17135C3.95206 2.02771 4.12258 1.91377 4.31026 1.83603C4.49794 1.75829 4.69909 1.71828 4.90222 1.71828C5.10536 1.71828 5.30651 1.75829 5.49419 1.83603C5.68186 1.91377 5.85239 2.02771 5.99603 2.17135C6.13967 2.31499 6.25361 2.48552 6.33135 2.67319C6.40909 2.86087 6.4491 3.06202 6.4491 3.26516V4.81203C6.4491 4.98024 6.40739 5.13882 6.33452 5.27861L6.33727 5.27311L5.50127 6.80578L7.41481 8.05795C7.66322 8.22203 7.82456 8.50024 7.82456 8.81603V8.81924L7.8241 9.96874Z" fill="black"/>
</g>
<defs>
<clipPath id="clip0">
<rect width="11" height="11" fill="white" transform="translate(0.947266)"/>
</clipPath>
</defs>
</svg>
