<svg width="19" height="22" viewBox="0 0 19 22" fill="none" xmlns="http://www.w3.org/2000/svg">
<g clip-path="url(#clip0)">
<path d="M9.49905 22C10.997 22 12.2121 20.7689 12.2121 19.25H6.78604C6.78604 20.7689 8.00111 22 9.49905 22ZM18.6339 15.5671C17.8145 14.6751 16.2814 13.3332 16.2814 8.9375C16.2814 5.59883 13.9708 2.92617 10.8553 2.27047V1.375C10.8553 0.615742 10.248 0 9.49905 0C8.75008 0 8.14276 0.615742 8.14276 1.375V2.27047C5.02727 2.92617 2.71673 5.59883 2.71673 8.9375C2.71673 13.3332 1.18358 14.6751 0.364209 15.5671C0.109745 15.8443 -0.00306778 16.1756 -0.00094724 16.5C0.00371794 17.2047 0.549544 17.875 1.36044 17.875H17.6377C18.4486 17.875 18.9948 17.2047 18.9991 16.5C19.0012 16.1756 18.8884 15.8439 18.6339 15.5671Z" fill="#354A94"/>
</g>
<defs>
<clipPath id="clip0">
<rect width="19" height="22" fill="white"/>
</clipPath>
</defs>
</svg>
